Ann Coulter’s Twitter Mining
…
——————————————————–

words <- tidy_tweets %>%
  count(word, sort = T) %>%
  filter(!str_detect(word, "^@|ha")) %>% 
  # by this line, I excluded user mentions, 
  #as well as "ha ha ha" because they are not actually words.
  top_n(20) %>% # top 15
  arrange(desc(n))

## Selecting by n

words

## # A tibble: 21 x 2
##    word          n
##    <chr>     <int>
##  1 trump       354
##  2 wall        308
##  3 border      197
##  4 immigrant   179
##  5 democrat    169
##  6 people      158
##  7 illegal     157
##  8 vote        157
##  9 ann         152
## 10 time        147
## # ... with 11 more rows
…
